C:\Users\CTS\IdeaProjects\Rest-jaxrs-sapiens5\src\main\java\pl\sda\rest\resources\MessageResource.java
C:\Users\CTS\IdeaProjects\Rest-jaxrs-sapiens5\src\main\java\pl\sda\rest\filter\PrintHeadersRequestFilter.java
C:\Users\CTS\IdeaProjects\Rest-jaxrs-sapiens5\src\main\java\pl\sda\rest\util\LocalDateTimeSerializer.java
C:\Users\CTS\IdeaProjects\Rest-jaxrs-sapiens5\src\main\java\pl\sda\rest\resources\HelloWorldResource.java
C:\Users\CTS\IdeaProjects\Rest-jaxrs-sapiens5\src\main\java\pl\sda\rest\RestConfig.java
C:\Users\CTS\IdeaProjects\Rest-jaxrs-sapiens5\src\main\java\pl\sda\rest\util\LocalDateTimeDeserializer.java
C:\Users\CTS\IdeaProjects\Rest-jaxrs-sapiens5\src\main\java\pl\sda\rest\exception\MessageNotFoundException.java
C:\Users\CTS\IdeaProjects\Rest-jaxrs-sapiens5\src\main\java\pl\sda\rest\model\Message.java
C:\Users\CTS\IdeaProjects\Rest-jaxrs-sapiens5\src\main\java\pl\sda\rest\service\MessageService.java
C:\Users\CTS\IdeaProjects\Rest-jaxrs-sapiens5\src\main\java\pl\sda\rest\consumer\RestConsumer.java
C:\Users\CTS\IdeaProjects\Rest-jaxrs-sapiens5\src\main\java\pl\sda\rest\exception\MessageNotFoundExceptionMapper.java
C:\Users\CTS\IdeaProjects\Rest-jaxrs-sapiens5\src\main\java\pl\sda\rest\filter\AuthorizationRequestFilter.java
